…
```r
post_new_article("./my-great-article.Rmd")
```

### Check your articles

There are two functions to check the posted articles on dev.to, published and unpublished. Both will return a 'tidy' data set by default.

```r
get_users_articles()

Using DEVTO in .Renviron
The API returned the expected success: 200
# A tibble: 27 x 20
   type_of     id title description published published_at slug  path  url  
   <chr>    <int> <chr> <chr>       <lgl>     <chr>        <chr> <chr> <chr>
 1 article 370013 Nati… "I made an… TRUE      2020-06-26T… nati… /dav… http…
 2 article 367598 Inve… "Is the de… TRUE      2020-06-26T… inve… /dav… http…
 3 article 367500 Why … "Motivatio… TRUE      2020-06-25T… why-… /dav… http…
 4 article 345011 Buil… "I'm worki… TRUE      2020-06-25T… buil… /dav… http…
 5 article 357514 3 mi… "I’ve made… TRUE      2020-06-17T… 3-mi… /dav… http…
 6 article 357411 Is '… "The langu… TRUE      2020-06-17T… is-r… /dav… http…
 7 article 357002 Webs… "library(t… TRUE      2020-06-16T… webs… /dav… http…
 8 article 356940 Is i… "I seem to… TRUE      2020-06-16T… is-i… /dav… http…
 9 article 354878 Reco… "I am writ… TRUE      2020-06-13T… reco… /dav… http…
10 article 354676 A re… "So I have… TRUE      2020-06-13T… a-re… /dav… http…
# … with 17 more rows, and 11 more variables: comments_count <int>,
#   public_reactions_count <int>, page_views_count <int>,
#   published_timestamp <chr>, body_markdown <chr>,
#   positive_reactions_count <int>, tag_list <list>, canonical_url <chr>,
#   user <list>, flare_tag <list>, cover_image <chr>
```
…
